Project 1: Exploratory Data Analysis
…
library(dplyr)
library(fivethirtyeight)
library(tidyverse)
college_grads <- college_recent_grads

college_comp <- college_grad_students

Because the data was already tidy to begin with, I'm going to be pivoting it in the visualization section (#4) when I make the correlation dataframe.

2. Joining/Merging

college_grads %>% full_join(college_comp)

## # A tibble: 173 x 40
##     rank major_code major major_category total sample_size   men women
##    <int>      <int> <chr> <chr>          <int>       <int> <int> <int>
##  1     1       2419 Petr… Engineering     2339          36  2057   282
##  2     2       2416 Mini… Engineering      756           7   679    77
##  3     3       2415 Meta… Engineering      856           3   725   131
##  4     4       2417 Nava… Engineering     1258          16  1123   135
##  5     5       2405 Chem… Engineering    32260         289 21239 11021
##  6     6       2418 Nucl… Engineering     2573          17  2200   373
##  7     7       6202 Actu… Business        3777          51  2110  1667
##  8     8       5001 Astr… Physical Scie…  1792          10   832   960
##  9     9       2414 Mech… Engineering    91227        1029 80320 10907
## 10    10       2408 Elec… Engineering    81527         631 65511 16016
## # … with 163 more rows, and 32 more variables: sharewomen <dbl>,
## #   employed <int>, employed_fulltime <int>, employed_parttime <int>,
## #   employed_fulltime_yearround <int>, unemployed <int>,
## #   unemployment_rate <dbl>, p25th <dbl>, median <dbl>, p75th <dbl>,
## #   college_jobs <int>, non_college_jobs <int>, low_wage_jobs <int>,
## #   grad_total <int>, grad_sample_size <int>, grad_employed <int>,
## #   grad_employed_fulltime_yearround <int>, grad_unemployed <int>,
## #   grad_unemployment_rate <dbl>, grad_p25th <dbl>, grad_median <dbl>,
## #   grad_p75th <int>, nongrad_total <int>, nongrad_employed <int>,
…
The "college_grads" dataset had 173 observations and 21 variables while the "college_comp" dataset had 173 observations and 22 variables. The combined dataset, "fullcollege" has 173 observations and 40 variables. The number of observations remained the same because each observation was the name of a particular major, and both datasets included all the majors. Instead of 43 total variables, there are 40 because 3 variables were shared by both datasets: "major", "major_code", and "major_category". I chose to do a full join so that it retained all of the unique variables from both datasets.

3. Wrangling

full_college <- fullcollege %>% mutate(percent_college = college_jobs/employed) %>% 
    mutate(total_quantile = ntile(total, 4)) %>% mutate(total_quantile = recode(total_quantile, 
    `1` = "1st Quantile", `2` = "2nd Quantile", `3` = "3rd Quantile", 
    `4` = "4th Quantile"))
full_college %>% rename(grad_p25th = "grad_p75th", grad_p75th = "grad_p25th")

## # A tibble: 173 x 42
##     rank major_code major major_category total sample_size   men women
##    <int>      <int> <chr> <chr>          <int>       <int> <int> <int>
##  1     1       2419 Petr… Engineering     2339          36  2057   282
##  2     2       2416 Mini… Engineering      756           7   679    77
##  3     3       2415 Meta… Engineering      856           3   725   131
##  4     4       2417 Nava… Engineering     1258          16  1123   135
##  5     5       2405 Chem… Engineering    32260         289 21239 11021
##  6     6       2418 Nucl… Engineering     2573          17  2200   373
##  7     7       6202 Actu… Business        3777          51  2110  1667
##  8     8       5001 Astr… Physical Scie…  1792          10   832   960
##  9     9       2414 Mech… Engineering    91227        1029 80320 10907
## 10    10       2408 Elec… Engineering    81527         631 65511 16016
## # … with 163 more rows, and 34 more variables: sharewomen <dbl>,
## #   employed <int>, employed_fulltime <int>, employed_parttime <int>,
## #   employed_fulltime_yearround <int>, unemployed <int>,
## #   unemployment_rate <dbl>, p25th <dbl>, median <dbl>, p75th <dbl>,
## #   college_jobs <int>, non_college_jobs <int>, low_wage_jobs <int>,
## #   grad_total <int>, grad_sample_size <int>, grad_employed <int>,
## #   grad_employed_fulltime_yearround <int>, grad_unemployed <int>,
## #   grad_unemployment_rate <dbl>, grad_p75th <dbl>, grad_median <dbl>,
## #   grad_p25th <int>, nongrad_total <int>, nongrad_employed <int>,
…
full_college %>% group_by(major, major_category, total_quantile) %>% 
    summarize(mean_grad_prop = mean(grad_share, na.rm = T), sd_grad_prop = sd(grad_share, 
        na.rm = T), var_grad_prop = var(grad_share, na.rm = T), 
        min_grad_prop = min(grad_share, na.rm = T), max_grad_prop = max(grad_share, 
            na.rm = T)) %>% arrange(desc(mean_grad_prop))

## # A tibble: 173 x 8
## # Groups:   major, major_category [173]
##    major major_category total_quantile mean_grad_prop sd_grad_prop var_grad_prop
##    <chr> <chr>          <chr>                   <dbl>        <dbl>         <dbl>
##  1 Educ… Education      1st Quantile            0.931           NA            NA
##  2 Scho… Education      1st Quantile            0.899           NA            NA
##  3 Heal… Health         2nd Quantile            0.814           NA            NA
##  4 Clin… Psychology & … 1st Quantile            0.777           NA            NA
##  5 Coun… Psychology & … 2nd Quantile            0.755           NA            NA
##  6 Comm… Health         3rd Quantile            0.754           NA            NA
##  7 Mate… Engineering    1st Quantile            0.715           NA            NA
##  8 Gene… Biology & Lif… 1st Quantile            0.697           NA            NA
##  9 Bioc… Biology & Lif… 4th Quantile            0.688           NA            NA
## 10 Educ… Psychology & … 1st Quantile            0.682           NA            NA
## # … with 163 more rows, and 2 more variables: min_grad_prop <dbl>,
## #   max_grad_prop <dbl>
…
